(kicad_pcb (version 20221018) (generator pcbnew)

  (general
    (thickness 1.6)
  )

  (paper "A4")
  (layers
    (0 "F.Cu" signal)
    (31 "B.Cu" signal)
    (32 "B.Adhes" user "B.Adhesive")
    (33 "F.Adhes" user "F.Adhesive")
    (34 "B.Paste" user)
    (35 "F.Paste" user)
    (36 "B.SilkS" user "B.Silkscreen")
    (37 "F.SilkS" user "F.Silkscreen")
    (38 "B.Mask" user)
    (39 "F.Mask" user)
    (40 "Dwgs.User" user "User.Drawings")
    (41 "Cmts.User" user "User.Comments")
    (42 "Eco1.User" user "User.Eco1")
    (43 "Eco2.User" user "User.Eco2")
    (44 "Edge.Cuts" user)
    (45 "Margin" user)
    (46 "B.CrtYd" user "B.Courtyard")
    (47 "F.CrtYd" user "F.Courtyard")
    (48 "B.Fab" user)
    (49 "F.Fab" user)
    (50 "User.1" user)
    (51 "User.2" user)
    (52 "User.3" user)
    (53 "User.4" user)
    (54 "User.5" user)
    (55 "User.6" user)
    (56 "User.7" user)
    (57 "User.8" user)
    (58 "User.9" user)
  )

  (setup
    (stackup
      (layer "F.SilkS" (type "Top Silk Screen"))
      (layer "F.Paste" (type "Top Solder Paste"))
      (layer "F.Mask" (type "Top Solder Mask") (thickness 0.01))
      (layer "F.Cu" (type "copper") (thickness 0.035))
      (layer "dielectric 1" (type "core") (thickness 1.51) (material "FR4") (epsilon_r 4.5) (loss_tangent 0.02))
      (layer "B.Cu" (type "copper") (thickness 0.035))
      (layer "B.Mask" (type "Bottom Solder Mask") (thickness 0.01))
      (layer "B.Paste" (type "Bottom Solder Paste"))
      (layer "B.SilkS" (type "Bottom Silk Screen"))
      (copper_finish "None")
      (dielectric_constraints no)
    )
    (pad_to_mask_clearance 0)
    (pcbplotparams
      (layerselection 0x0001000_7fffffff)
      (plot_on_all_layers_selection 0x0000000_00000000)
      (disableapertmacros false)
      (usegerberextensions false)
      (usegerberattributes true)
      (usegerberadvancedattributes true)
      (creategerberjobfile true)
      (dashed_line_dash_ratio 12.000000)
      (dashed_line_gap_ratio 3.000000)
      (svgprecision 4)
      (plotframeref false)
      (viasonmask false)
      (mode 1)
      (useauxorigin false)
      (hpglpennumber 1)
      (hpglpenspeed 20)
      (hpglpendiameter 15.000000)
      (dxfpolygonmode true)
      (dxfimperialunits false)
      (dxfusepcbnewfont true)
      (psnegative false)
      (psa4output false)
      (plotreference true)
      (plotvalue true)
      (plotinvisibletext false)
      (sketchpadsonfab false)
      (subtractmaskfromsilk false)
      (outputformat 3)
      (mirror false)
      (drillshape 0)
      (scaleselection 1)
      (outputdirectory "C:/Users/lenov/Documents/Fab Academy 2023/week15-wild/")
    )
  )

  (net 0 "")
  (net 1 "SCL")
  (net 2 "SDA")
  (net 3 "GND")
  (net 4 "+3.3V")
  (net 5 "RESET")
  (net 6 "RX")
  (net 7 "TX")
  (net 8 "unconnected-(U1-PA3{slash}SCK-Pad7)")

  (footprint "fab:R_1206" locked (layer "F.Cu")
    (tstamp 0718f308-2c79-4610-a8aa-44abe22b1ca4)
    (at 133.858 48.133 -90)
    (descr "Resistor SMD 1206, hand soldering")
    (tags "resistor 1206")
    (property "Sheetfile" "step-response.kicad_sch")
    (property "Sheetname" "")
    (property "ki_description" "Resistor")
    (property "ki_keywords" "R res resistor")
    (path "/863235d4-b0ae-49b1-93d1-e2609087ebe9")
    (attr smd)
    (fp_text reference "R1" (at 0 -1.85 90) (layer "F.SilkS")
        (effects (font (size 1 1) (thickness 0.15)))
      (tstamp 46519e5d-1db7-4f24-9467-5494b6be9f79)
    )
    (fp_text value "1M" (at 0 1.9 90) (layer "F.Fab")
        (effects (font (size 1 1) (thickness 0.15)))
      (tstamp f6eb930a-7be0-4f11-a243-cffa58a952d8)
    )
    (fp_text user "${REFERENCE}" (at 0 0 90) (layer "F.Fab")
        (effects (font (size 0.7 0.7) (thickness 0.105)))
      (tstamp 222e5a6d-25c8-499a-b73a-b15d1cb87eb0)
    )
    (fp_line (start -1 -1.07) (end 1 -1.07)
      (stroke (width 0.12) (type solid)) (layer "F.SilkS") (tstamp 8016f11b-4a02-4d88-86b3-e618f8f72dd5))
    (fp_line (start 1 1.07) (end -1 1.07)
      (stroke (width 0.12) (type solid)) (layer "F.SilkS") (tstamp f3091bbb-6b05-43a5-8ed7-c3011bddb23e))
    (fp_line (start -3.25 -1.11) (end -3.25 1.1)
      (stroke (width 0.05) (type solid)) (layer "F.CrtYd") (tstamp 6a5f3448-8c22-43d9-b529-ce00813248a0))
    (fp_line (start -3.25 -1.11) (end 3.25 -1.11)
      (stroke (width 0.05) (type solid)) (layer "F.CrtYd") (tstamp ccacdd51-598e-4bd8-9af2-192de893b25a))
    (fp_line (start 3.25 1.1) (end -3.25 1.1)
      (stroke (width 0.05) (type solid)) (layer "F.CrtYd") (tstamp 2cb46cf9-5aca-4ffd-b40b-c735f51b8617))
    (fp_line (start 3.25 1.1) (end 3.25 -1.11)
      (stroke (width 0.05) (type solid)) (layer "F.CrtYd") (tstamp 70090fdd-63e7-4a77-b7f5-bf7a3fc9cc44))
    (fp_line (start -1.6 -0.8) (end 1.6 -0.8)
      (stroke (width 0.1) (type solid)) (layer "F.Fab") (tstamp 03c37713-cca4-4e15-b726-566daf673a08))
    (fp_line (start -1.6 0.8) (end -1.6 -0.8)
      (stroke (width 0.1) (type solid)) (layer "F.Fab") (tstamp b6665dd0-9a8d-447b-ba80-b7771638b0ce))
    (fp_line (start 1.6 -0.8) (end 1.6 0.8)
      (stroke (width 0.1) (type solid)) (layer "F.Fab") (tstamp 20fe0eeb-a94d-44fb-b806-e2f6394a8814))
    (fp_line (start 1.6 0.8) (end -1.6 0.8)
      (stroke (width 0.1) (type solid)) (layer "F.Fab") (tstamp 7418c101-dddd-4d1a-a0c9-8995c2412ebc))
    (pad "1" smd rect locked (at -2 0 270) (size 2 1.7) (layers "F.Cu" "F.Paste" "F.Mask")
      (net 4 "+3.3V") (pintype "passive") (tstamp 116e5cf1-2769-40c9-a7dd-2da00e7415ad))
    (pad "2" smd rect locked (at 2 0 270) (size 2 1.7) (layers "F.Cu" "F.Paste" "F.Mask")
      (net 6 "RX") (pintype "passive") (tstamp 10741bd2-c163-4e69-a72b-3d56a0630f58))
    (model "${FAB}/fab.3dshapes/R_1206.step"
      (offset (xyz 0 0 0))
      (scale (xyz 1 1 1))
      (rotate (xyz 0 0 0))
    )
  )

  (footprint "fab:R_1206" (layer "F.Cu")
    (tstamp 2f42c12d-e975-48fe-9948-d2a5d75fb10b)
    (at 148.717 48.101 90)
    (descr "Resistor SMD 1206, hand soldering")
    (tags "resistor 1206")
    (property "Sheetfile" "step-response.kicad_sch")
    (property "Sheetname" "")
    (property "ki_description" "Resistor")
    (property "ki_keywords" "R res resistor")
    (path "/4198b413-e552-403c-8ae0-f773a69a342d")
    (attr smd)
    (fp_text reference "R2" (at 0 -1.85 90) (layer "F.SilkS")
        (effects (font (size 1 1) (thickness 0.15)))
      (tstamp 2b974057-692c-4517-9556-c30560cde878)
    )
    (fp_text value "1M" (at 0 1.9 90) (layer "F.Fab")
        (effects (font (size 1 1) (thickness 0.15)))
      (tstamp 2264803d-ed4a-411d-9483-cb33d717b330)
    )
    (fp_text user "${REFERENCE}" (at 0 0 90) (layer "F.Fab")
        (effects (font (size 0.7 0.7) (thickness 0.105)))
      (tstamp 87721347-b2a2-4f03-adb6-2d619ffc3e22)
    )
    (fp_line (start -1 -1.07) (end 1 -1.07)
      (stroke (width 0.12) (type solid)) (layer "F.SilkS") (tstamp 654d20e4-86cd-4872-8e40-20522e0b2289))
    (fp_line (start 1 1.07) (end -1 1.07)
      (stroke (width 0.12) (type solid)) (layer "F.SilkS") (tstamp b3f86667-aa78-4d88-ad13-5e78486140d9))
    (fp_line (start -3.25 -1.11) (end -3.25 1.1)
      (stroke (width 0.05) (type solid)) (layer "F.CrtYd") (tstamp 56e737e4-e6a0-4f51-98d6-871d206e6e18))
    (fp_line (start -3.25 -1.11) (end 3.25 -1.11)
      (stroke (width 0.05) (type solid)) (layer "F.CrtYd") (tstamp 5544bfe9-aef0-4e9b-bd30-b83b0de66ae0))
    (fp_line (start 3.25 1.1) (end -3.25 1.1)
      (stroke (width 0.05) (type solid)) (layer "F.CrtYd") (tstamp 558bcd0a-fb16-4c9b-a3af-4939ed521425))
    (fp_line (start 3.25 1.1) (end 3.25 -1.11)
      (stroke (width 0.05) (type solid)) (layer "F.CrtYd") (tstamp 65748af0-00c3-4775-8c0e-f8a3a23d4335))
    (fp_line (start -1.6 -0.8) (end 1.6 -0.8)
      (stroke (width 0.1) (type solid)) (layer "F.Fab") (tstamp b5e61a4f-39d8-4a5f-b2b2-e59c06239fda))
    (fp_line (start -1.6 0.8) (end -1.6 -0.8)
      (stroke (width 0.1) (type solid)) (layer "F.Fab") (tstamp 4b6f6c6e-381a-4655-adbc-dc6249f9a6ac))
    (fp_line (start 1.6 -0.8) (end 1.6 0.8)
      (stroke (width 0.1) (type solid)) (layer "F.Fab") (tstamp f21a19e3-a93b-4e15-adc6-fe014b714531))
    (fp_line (start 1.6 0.8) (end -1.6 0.8)
      (stroke (width 0.1) (type solid)) (layer "F.Fab") (tstamp 8280bcb8-11ff-4e32-b9ee-6b620872a263))
    (pad "1" smd rect (at -2 0 90) (size 2 1.7) (layers "F.Cu" "F.Paste" "F.Mask")
      (net 6 "RX") (pintype "passive") (tstamp f4e08fd9-a22c-4783-bfe9-d497f80beeb8))
    (pad "2" smd rect (at 2 0 90) (size 2 1.7) (layers "F.Cu" "F.Paste" "F.Mask")
      (net 3 "GND") (pintype "passive") (tstamp 965d79da-bad4-4caa-a43a-02139a4df14f))
    (model "${FAB}/fab.3dshapes/R_1206.step"
      (offset (xyz 0 0 0))
      (scale (xyz 1 1 1))
      (rotate (xyz 0 0 0))
    )
  )

  (footprint "fab:PinHeader_1x01_P2.54mm_Horizontal_SMD" (layer "F.Cu")
    (tstamp 41b627d8-a1aa-4714-8738-635aa3192bcd)
    (at 132.08 39.497 90)
    (descr "https://s3.amazonaws.com/catalogspreads-pdf/PAGE112-113%20.100%20MALE%20HDR.pdf")
    (tags "horizontal pin header SMD 2.54mm")
    (property "Sheetfile" "step-response.kicad_sch")
    (property "Sheetname" "")
    (property "ki_description" "Connector pin header 2.54mm pitch horizontal SMD")
    (property "ki_keywords" "Connector pin header 2.54mm pitch horizontal SMD")
    (path "/0a939a1f-c029-4c14-84b1-e01f78af9d62")
    (attr smd)
    (fp_text reference "JTX1" (at -1.524 -2.54 90) (layer "F.SilkS")
        (effects (font (size 1 1) (thickness 0.15)) (justify right))
      (tstamp 5e7b42ed-e87d-4dea-b8d5-8265244d366a)
    )
    (fp_text value "Conn_PinHeader_1x01_P2.54mm_Horizontal_SMD" (at 2.6 3.2 90) (layer "F.Fab") hide
        (effects (font (size 1 1) (thickness 0.15)))
      (tstamp 700a47e8-d338-4486-9b62-1c48c5cc63b1)
    )
    (fp_text user "${REFERENCE}" (at 2.5 0) (layer "F.Fab")
        (effects (font (size 1 1) (thickness 0.15)))
      (tstamp 267451a9-020b-415a-80aa-9592884996ed)
    )
    (fp_line (start -1.27 -1.27) (end 0 -1.27)
      (stroke (width 0.12) (type solid)) (layer "F.SilkS") (tstamp efae3a5a-78ec-4627-826e-c8edb767b5ab))
    (fp_line (start 3.81 -1.27) (end 6.35 -1.27)
      (stroke (width 0.12) (type solid)) (layer "F.SilkS") (tstamp bd2e7ed3-74eb-4fb5-8235-721c9c046c38))
    (fp_line (start 3.81 -0.254) (end 1.27 -0.254)
      (stroke (width 0.12) (type solid)) (layer "F.SilkS") (tstamp 39319be0-36c3-4b9c-9e78-1b4b5b59d618))
    (fp_line (start 3.81 0.254) (end 1.27 0.254)
      (stroke (width 0.12) (type solid)) (layer "F.SilkS") (tstamp 5002afc6-2b83-4abf-9bfe-0eaa9bc13777))
    (fp_line (start 3.81 1.397) (end 3.81 -1.27)
      (stroke (width 0.12) (type solid)) (layer "F.SilkS") (tstamp e64512b0-b10a-43eb-a5fa-707ea7bf939a))
    (fp_line (start 6.35 -1.27) (end 6.35 1.397)
      (stroke (width 0.12) (type solid)) (layer "F.SilkS") (tstamp 3059ebf6-0e61-41f6-9fbb-ee4ddc91d396))
    (fp_line (start 6.35 1.397) (end 3.81 1.397)
      (stroke (width 0.12) (type solid)) (layer "F.SilkS") (tstamp 2bc183a1-8520-4612-bf71-7b8ca1380141))
    (fp_line (start -1.8 -1.8) (end -1.8 1.9)
      (stroke (width 0.05) (type solid)) (layer "F.CrtYd") (tstamp f52e6c3b-0fa5-490f-9f4d-7139d97617fc))
    (fp_line (start -1.8 1.9) (end 6.4 1.9)
      (stroke (width 0.05) (type solid)) (layer "F.CrtYd") (tstamp 2b1f5842-7249-4555-b28e-65576ef8f84f))
    (fp_line (start 6.4 -1.8) (end -1.8 -1.8)
      (stroke (width 0.05) (type solid)) (layer "F.CrtYd") (tstamp 31dc3387-b4ff-4b0b-ae84-65585bdc4edc))
    (fp_line (start 6.4 1.9) (end 6.4 -1.8)
      (stroke (width 0.05) (type solid)) (layer "F.CrtYd") (tstamp b6116596-2329-4745-8dd9-198f388c4a12))
    (fp_line (start -0.635 -0.254) (end -0.635 0.254)
      (stroke (width 0.1) (type solid)) (layer "F.Fab") (tstamp 0de5c189-b901-42c6-8c3d-da237fd8a79d))
    (fp_line (start 3.8 -1.27) (end 6.34 -1.27)
      (stroke (width 0.1) (type solid)) (layer "F.Fab") (tstamp d6e0a6b2-48a0-43e3-b097-a71acb29139e))
    (fp_line (start 3.81 0) (end -0.635 0)
      (stroke (width 0.1) (type solid)) (layer "F.Fab") (tstamp a3c4052e-53a1-4656-903a-21cdfdd97fb7))
    (fp_line (start 3.81 1.4) (end 3.8 -1.27)
      (stroke (width 0.1) (type solid)) (layer "F.Fab") (tstamp e112f44a-2ddf-4776-b316-23b682123a16))
    (fp_line (start 3.81 1.4) (end 6.36 1.4)
      (stroke (width 0.1) (type solid)) (layer "F.Fab") (tstamp 39aa2d80-8c87-4a34-8bb9-f3b635a5a078))
    (fp_line (start 6.34 -1.27) (end 6.36 1.4)
      (stroke (width 0.1) (type solid)) (layer "F.Fab") (tstamp 2e50f31f-3e25-411f-9efd-826c80d47edd))
    (pad "1" smd rect (at 0 0 90) (size 2.5 1.7) (layers "F.Cu" "F.Paste" "F.Mask")
      (net 7 "TX") (pinfunction "Pin_1") (pintype "passive") (tstamp 9b8a16ba-366e-4071-8c19-97e5cd5ca8f2))
    (model "${FAB}/fab.3dshapes/Header_SMD_01x01_P2.54mm_Horizontal_Male.step"
      (offset (xyz 0 0 0))
      (scale (xyz 1 1 1))
      (rotate (xyz 0 0 0))
    )
  )

  (footprint "fab:PinHeader_1x04_P2.54mm_Horizontal_SMD" (layer "F.Cu")
    (tstamp c461b432-b631-4da9-a175-05672a55a0b3)
    (at 137.424 39.511 90)
    (descr "https://s3.amazonaws.com/catalogspreads-pdf/PAGE112-113%20.100%20MALE%20HDR.pdf")
    (tags "horizontal pin header SMD 2.54mm")
    (property "Sheetfile" "step-response.kicad_sch")
    (property "Sheetname" "")
    (property "ki_description" "Male connector, single row")
    (property "ki_keywords" "single row male connector")
    (path "/ec565043-1971-4709-b363-f81ac900d037")
    (attr smd)
    (fp_text reference "JI2C1" (at -1.524 -2.54 90) (layer "F.SilkS")
        (effects (font (size 1 1) (thickness 0.15)) (justify right))
      (tstamp bd7e1073-67e9-4b4a-aa8d-49d6f5894060)
    )
    (fp_text value "Conn_PinHeader_1x04_P2.54mm_Horizontal_SMD" (at 0 10.795 90) (layer "F.Fab") hide
        (effects (font (size 1 1) (thickness 0.15)))
      (tstamp 8fbfd108-f0a7-4317-a49a-e074002a19e7)
    )
    (fp_text user "${REFERENCE}" (at 2.5 3.9) (layer "F.Fab")
        (effects (font (size 1 1) (thickness 0.15)))
      (tstamp 4a02ee82-e33a-44c5-8660-54f454635776)
    )
    (fp_line (start -1.27 -1.27) (end 0 -1.27)
      (stroke (width 0.12) (type solid)) (layer "F.SilkS") (tstamp 28985a31-e119-45fb-81c8-d202f98d303b))
    (fp_line (start 3.81 -1.27) (end 6.35 -1.27)
      (stroke (width 0.12) (type solid)) (layer "F.SilkS") (tstamp 841a91f3-b139-486e-9543-1d1b3fe7c411))
    (fp_line (start 3.81 -0.254) (end 1.27 -0.254)
      (stroke (width 0.12) (type solid)) (layer "F.SilkS") (tstamp c0587ed8-3e4e-4f71-9e23-ea8eeb0c4489))
    (fp_line (start 3.81 0.254) (end 1.27 0.254)
      (stroke (width 0.12) (type solid)) (layer "F.SilkS") (tstamp 37bdb8a9-32b5-405d-aa95-f6297ef316eb))
    (fp_line (start 3.81 2.286) (end 1.27 2.286)
      (stroke (width 0.12) (type solid)) (layer "F.SilkS") (tstamp cfd2bccc-261f-4f49-bea9-6a844535768a))
    (fp_line (start 3.81 2.794) (end 1.27 2.794)
      (stroke (width 0.12) (type solid)) (layer "F.SilkS") (tstamp f2bd1ebf-6adf-4fb0-aafe-519386e3af1c))
    (fp_line (start 3.81 4.826) (end 1.27 4.826)
      (stroke (width 0.12) (type solid)) (layer "F.SilkS") (tstamp 86ec49ab-3815-463f-8aa1-16b4bb003d16))
    (fp_line (start 3.81 5.334) (end 1.27 5.334)
      (stroke (width 0.12) (type solid)) (layer "F.SilkS") (tstamp e420a2b5-f583-4d8e-b160-0b78d00cc11f))
    (fp_line (start 3.81 7.366) (end 1.27 7.366)
      (stroke (width 0.12) (type solid)) (layer "F.SilkS") (tstamp c3965cd9-4587-48de-917d-2c950bd25fa7))
    (fp_line (start 3.81 7.874) (end 1.27 7.874)
      (stroke (width 0.12) (type solid)) (layer "F.SilkS") (tstamp bd316a90-1ebd-46fb-998e-165347c18cc0))
    (fp_line (start 3.81 8.89) (end 3.81 -1.27)
      (stroke (width 0.12) (type solid)) (layer "F.SilkS") (tstamp 5cdc2e63-469c-44dd-9ee2-617b62b71f93))
    (fp_line (start 6.35 -1.27) (end 6.35 8.89)
      (stroke (width 0.12) (type solid)) (layer "F.SilkS") (tstamp 4f5647ed-d103-4a59-b7b2-71ee614ce47b))
    (fp_line (start 6.35 8.89) (end 3.81 8.89)
      (stroke (width 0.12) (type solid)) (layer "F.SilkS") (tstamp 7175f27a-72f0-4b30-8279-6452b2e83d2b))
    (fp_line (start -1.8 -1.8) (end -1.8 9.4)
      (stroke (width 0.05) (type solid)) (layer "F.CrtYd") (tstamp 44026e49-d35d-4769-b4db-93e343c3b2dc))
    (fp_line (start -1.8 9.4) (end 6.4 9.4)
      (stroke (width 0.05) (type solid)) (layer "F.CrtYd") (tstamp 015d10ba-0511-4ce2-8cf9-dc0e084b01f7))
    (fp_line (start 6.4 -1.8) (end -1.8 -1.8)
      (stroke (width 0.05) (type solid)) (layer "F.CrtYd") (tstamp bfbe6820-b6c6-475e-88dd-83c4db6720f5))
    (fp_line (start 6.4 9.4) (end 6.4 -1.8)
      (stroke (width 0.05) (type solid)) (layer "F.CrtYd") (tstamp 77acfba2-1808-4b0e-8e8f-487e54738592))
    (fp_line (start -0.635 -0.254) (end -0.635 0.254)
      (stroke (width 0.1) (type solid)) (layer "F.Fab") (tstamp 4a8d558c-68b7-4526-971c-739ea68923c4))
    (fp_line (start -0.635 2.286) (end -0.635 2.794)
      (stroke (width 0.1) (type solid)) (layer "F.Fab") (tstamp 6ef0c7fe-f56e-4116-a8a2-442b803fc810))
    (fp_line (start -0.635 4.826) (end -0.635 5.334)
      (stroke (width 0.1) (type solid)) (layer "F.Fab") (tstamp 80292f1e-e2a3-4c67-afd9-4e236350e3a4))
    (fp_line (start -0.635 7.366) (end -0.635 7.874)
      (stroke (width 0.1) (type solid)) (layer "F.Fab") (tstamp e2304a29-92ba-42ee-881e-dd04abf7d9f5))
    (fp_line (start 3.8 -1.27) (end 6.34 -1.27)
      (stroke (width 0.1) (type solid)) (layer "F.Fab") (tstamp 424eb248-77c9-4955-b175-c3ebb6841f2c))
    (fp_line (start 3.8 8.89) (end 3.8 -1.27)
      (stroke (width 0.1) (type solid)) (layer "F.Fab") (tstamp 10d4b037-a7ab-4c20-b8cc-6c0de2d937f0))
    (fp_line (start 3.8 8.89) (end 6.35 8.89)
      (stroke (width 0.1) (type solid)) (layer "F.Fab") (tstamp 1267582c-902c-4eaf-bf33-76c3fd197f50))
    (fp_line (start 3.81 0) (end -0.635 0)
      (stroke (width 0.1) (type solid)) (layer "F.Fab") (tstamp 7ca2273e-d046-4682-87fe-869c9411db49))
    (fp_line (start 3.81 2.54) (end -0.635 2.54)
      (stroke (width 0.1) (type solid)) (layer "F.Fab") (tstamp 68ae02ed-f3d9-4f10-8b55-4661a925459e))
    (fp_line (start 3.81 5.08) (end -0.635 5.08)
      (stroke (width 0.1) (type solid)) (layer "F.Fab") (tstamp 04f62f92-72ef-4c1a-ae7d-c68ab322d9be))
    (fp_line (start 3.81 7.62) (end -0.635 7.62)
      (stroke (width 0.1) (type solid)) (layer "F.Fab") (tstamp f51633af-9091-4dfd-9956-7881b1b11dfa))
    (fp_line (start 6.34 -1.27) (end 6.35 8.89)
      (stroke (width 0.1) (type solid)) (layer "F.Fab") (tstamp e6875220-3db5-4b95-ae01-919d3d3b5032))
    (pad "1" smd rect (at 0 0 90) (size 2.5 1.7) (layers "F.Cu" "F.Paste" "F.Mask")
      (net 4 "+3.3V") (pinfunction "Pin_1") (pintype "passive") (tstamp 79b1e06e-7254-4538-90b7-ff6117840715))
    (pad "2" smd rect (at 0 2.54 90) (size 2.5 1.7) (layers "F.Cu" "F.Paste" "F.Mask")
      (net 2 "SDA") (pinfunction "Pin_2") (pintype "passive") (tstamp 4ade8ca7-109f-4460-a2f4-b7797857be85))
    (pad "3" smd rect (at 0 5.08 90) (size 2.5 1.7) (layers "F.Cu" "F.Paste" "F.Mask")
      (net 1 "SCL") (pinfunction "Pin_3") (pintype "passive") (tstamp b4c1bdb0-e401-428e-adef-eacf8cac861e))
    (pad "4" smd rect (at 0 7.62 90) (size 2.5 1.7) (layers "F.Cu" "F.Paste" "F.Mask")
      (net 3 "GND") (pinfunction "Pin_4") (pintype "passive") (tstamp a23b9b9c-684a-49f7-8e4c-bdaadf22d6c0))
    (model "${FAB}/fab.3dshapes/Header_SMD_01x04_P2.54mm_Horizontal_Male.step"
      (offset (xyz 0 0 0))
      (scale (xyz 1 1 1))
      (rotate (xyz 0 0 0))
    )
  )

  (footprint "fab:SOIC-8_3.9x4.9mm_P1.27mm" (layer "F.Cu")
    (tstamp c9681adb-bac0-424f-a509-4794d0a83fb7)
    (at 141.218 48.133)
    (tags "SOIC 1.27")
    (property "Sheetfile" "step-response.kicad_sch")
    (property "Sheetname" "")
    (property "ki_description" "AVR tinyAVR™ 1 Microcontroller IC 8-Bit 20MHz 4KB (4K x 8) FLASH 8-SOIC")
    (property "ki_keywords" "avr tinyavr 1-series soic 8bit")
    (path "/a01bcd38-fa6d-4be7-98ed-5de6b2019b6a")
    (attr smd)
    (fp_text reference "U1" (at 0 -3.4) (layer "F.SilkS")
        (effects (font (size 1 1) (thickness 0.15)))
      (tstamp 02051501-5cd1-4547-8de1-fc7a83e1ad2d)
    )
    (fp_text value "Microcontroller_ATtiny412_SSFR" (at 0.26 4.826) (layer "F.Fab")
        (effects (font (size 1 1) (thickness 0.15)))
      (tstamp 51e7eeaa-9765-467a-a73a-20bee2c3b893)
    )
    (fp_text user "${REFERENCE}" (at 0 0) (layer "F.Fab")
        (effects (font (size 1 1) (thickness 0.15)))
      (tstamp c8d1c3c3-e7d9-41af-8436-f57b8e45d9f5)
    )
    (fp_line (start -3.69 -2.575) (end 2.075 -2.575)
      (stroke (width 0.15) (type solid)) (layer "F.SilkS") (tstamp 22c10992-3e56-42de-ae74-c602ad796c1e))
    (fp_line (start -2.075 2.575) (end 2.075 2.575)
      (stroke (width 0.15) (type solid)) (layer "F.SilkS") (tstamp fea681b9-dfe8-4d9d-88d4-a59c90fca315))
    (fp_circle (center -3.4 -3.1) (end -3.2 -3.1)
      (stroke (width 0.12) (type solid)) (fill none) (layer "F.SilkS") (tstamp 2f0e3f1e-5ad5-44d4-a3fe-0cbd791cb98e))
    (fp_line (start -3.9 -2.7) (end 3.9 -2.7)
      (stroke (width 0.05) (type solid)) (layer "F.CrtYd") (tstamp 55cce25e-fd03-4bd4-acd1-aa1c343b442b))
    (fp_line (start -3.9 2.7) (end -3.9 -2.7)
      (stroke (width 0.05) (type solid)) (layer "F.CrtYd") (tstamp 08e2c777-134d-49ff-ad56-4498bada6bb1))
    (fp_line (start 3.9 -2.7) (end 3.9 2.7)
      (stroke (width 0.05) (type solid)) (layer "F.CrtYd") (tstamp 847df26a-db2f-44ac-b055-7def57267685))
    (fp_line (start 3.9 2.7) (end -3.9 2.7)
      (stroke (width 0.05) (type solid)) (layer "F.CrtYd") (tstamp 6d51f6c8-d923-45d6-9c28-946a5e911e4a))
    (fp_line (start -1.95 -2.45) (end -1.95 2.45)
      (stroke (width 0.1) (type solid)) (layer "F.Fab") (tstamp 20c32134-4211-4196-947d-639886960dec))
    (fp_line (start -1.95 -2.45) (end 1.95 -2.45)
      (stroke (width 0.1) (type solid)) (layer "F.Fab") (tstamp efb38954-09a1-4f89-84c1-ad2b6d339a26))
    (fp_line (start -1.95 2.45) (end 1.95 2.45)
      (stroke (width 0.1) (type solid)) (layer "F.Fab") (tstamp ad032b3d-5f33-47b6-bc1d-77304ef8c16d))
    (fp_line (start 1.95 -2.45) (end 1.95 2.45)
      (stroke (width 0.1) (type solid)) (layer "F.Fab") (tstamp cddf7170-a112-46cd-8a63-f982463233f7))
    (pad "1" smd rect (at -2.8 -1.905) (size 2 0.8) (layers "F.Cu" "F.Paste" "F.Mask")
      (net 4 "+3.3V") (pinfunction "VCC") (pintype "power_in") (tstamp 7e377f5b-7e56-42e2-9e14-80a0cda0def0))
    (pad "2" smd rect (at -2.8 -0.635) (size 2 0.8) (layers "F.Cu" "F.Paste" "F.Mask")
      (net 7 "TX") (pinfunction "TXD/PA6/DAC") (pintype "bidirectional") (tstamp 7b5ad2ba-de43-4acc-be27-f033c135b7f2))
    (pad "3" smd rect (at -2.8 0.635) (size 2 0.8) (layers "F.Cu" "F.Paste" "F.Mask")
      (net 6 "RX") (pinfunction "RXD/PA7") (pintype "bidirectional") (tstamp 16c955a2-a340-446a-91f2-e3bd90d4f449))
    (pad "4" smd rect (at -2.8 1.905) (size 2 0.8) (layers "F.Cu" "F.Paste" "F.Mask")
      (net 2 "SDA") (pinfunction "PA1/SDA") (pintype "bidirectional") (tstamp 8092ce07-e2e6-4cca-8f6c-09506f70e344))
    (pad "5" smd rect (at 2.8 1.905) (size 2 0.8) (layers "F.Cu" "F.Paste" "F.Mask")
      (net 1 "SCL") (pinfunction "PA2/SCL") (pintype "bidirectional") (tstamp edefa2f6-9f0c-4f6a-8eec-c45500ee32af))
    (pad "6" smd rect (at 2.8 0.635) (size 2 0.8) (layers "F.Cu" "F.Paste" "F.Mask")
      (net 5 "RESET") (pinfunction "~{RESET}/UPDI/PA0") (pintype "bidirectional") (tstamp 819f9a72-ba8e-4944-8e50-d7e9ac87e798))
    (pad "7" smd rect (at 2.8 -0.635) (size 2 0.8) (layers "F.Cu" "F.Paste" "F.Mask")
      (net 8 "unconnected-(U1-PA3{slash}SCK-Pad7)") (pinfunction "PA3/SCK") (pintype "bidirectional") (tstamp 0c725d2a-bb77-4d0e-9c5b-2331835d38ea))
    (pad "8" smd rect (at 2.8 -1.905) (size 2 0.8) (layers "F.Cu" "F.Paste" "F.Mask")
      (net 3 "GND") (pinfunction "GND") (pintype "power_in") (tstamp c2c98ed0-d754-4685-b45f-5eb813031b81))
    (model "${FAB}/fab.3dshapes/SOIC-8_3.9x4.9mm_P1.27mm.step"
      (offset (xyz 0 0 0))
      (scale (xyz 1 1 1))
      (rotate (xyz 0 0 0))
    )
  )

  (footprint "fab:PinHeader_1x01_P2.54mm_Horizontal_SMD" (layer "F.Cu")
    (tstamp e0224a14-4812-4eb8-a809-cbeffb26d9b8)
    (at 131.335 58.107)
    (descr "https://s3.amazonaws.com/catalogspreads-pdf/PAGE112-113%20.100%20MALE%20HDR.pdf")
    (tags "horizontal pin header SMD 2.54mm")
    (property "Sheetfile" "step-response.kicad_sch")
    (property "Sheetname" "")
    (property "ki_description" "Connector pin header 2.54mm pitch horizontal SMD")
    (property "ki_keywords" "Connector pin header 2.54mm pitch horizontal SMD")
    (path "/f1601a84-f8ab-4977-b2b7-052f2d21f057")
    (attr smd)
    (fp_text reference "JRX1" (at -1.524 -2.54) (layer "F.SilkS")
        (effects (font (size 1 1) (thickness 0.15)) (justify right))
      (tstamp b5e19f33-9311-47f9-8fd3-818303dc645b)
    )
    (fp_text value "Conn_PinHeader_1x01_P2.54mm_Horizontal_SMD" (at 2.6 3.2) (layer "F.Fab") hide
        (effects (font (size 1 1) (thickness 0.15)))
      (tstamp b9f7f795-d790-4946-b939-61ffa01411e0)
    )
    (fp_line (start -1.27 -1.27) (end 0 -1.27)
      (stroke (width 0.12) (type solid)) (layer "F.SilkS") (tstamp ffb800a9-d374-4ec3-9b9e-bda27e825c71))
    (fp_line (start -0.635 -0.254) (end -0.635 0.254)
      (stroke (width 0.1) (type solid)) (layer "F.Fab") (tstamp 3a5b1893-aa7f-41d1-a557-c5ec7d098b43))
    (pad "1" smd rect (at 9.675 5.125) (size 21.85 11.95) (layers "F.Cu" "F.Paste" "F.Mask")
      (net 6 "RX") (pinfunction "Pin_1") (pintype "passive") (tstamp 07ab68e6-34e5-48c9-9db7-5eac67377c68))
    (model "${FAB}/fab.3dshapes/Header_SMD_01x01_P2.54mm_Horizontal_Male.step"
      (offset (xyz 0 0 0))
      (scale (xyz 1 1 1))
      (rotate (xyz 0 0 0))
    )
  )

  (footprint "fab:PinHeader_1x01_P2.54mm_Horizontal_SMD" (layer "F.Cu")
    (tstamp f2ac2b71-87c0-4040-b526-290f4ce21e59)
    (at 149.987 39.497 90)
    (descr "https://s3.amazonaws.com/catalogspreads-pdf/PAGE112-113%20.100%20MALE%20HDR.pdf")
    (tags "horizontal pin header SMD 2.54mm")
    (property "Sheetfile" "step-response.kicad_sch")
    (property "Sheetname" "")
    (property "ki_description" "Connector pin header 2.54mm pitch horizontal SMD")
    (property "ki_keywords" "Connector pin header 2.54mm pitch horizontal SMD")
    (path "/906d3aa8-ca18-47c3-830d-178536226359")
    (attr smd)
    (fp_text reference "JRESET1" (at -1.524 -2.54 90) (layer "F.SilkS")
        (effects (font (size 1 1) (thickness 0.15)) (justify right))
      (tstamp 537f80f8-3d17-44c7-aaa1-b946041e02a0)
    )
    (fp_text value "Conn_PinHeader_1x01_P2.54mm_Horizontal_SMD" (at 2.6 3.2 90) (layer "F.Fab") hide
        (effects (font (size 1 1) (thickness 0.15)))
      (tstamp 50add8de-2687-46f5-8db0-77b1cb763d37)
    )
    (fp_text user "${REFERENCE}" (at 2.5 0) (layer "F.Fab")
        (effects (font (size 1 1) (thickness 0.15)))
      (tstamp 4f37072e-acef-4ef9-9153-1758e55c5546)
    )
    (fp_line (start -1.27 -1.27) (end 0 -1.27)
      (stroke (width 0.12) (type solid)) (layer "F.SilkS") (tstamp 5aa3208b-bb35-46da-b3d1-a4a9a6c0723e))
    (fp_line (start 3.81 -1.27) (end 6.35 -1.27)
      (stroke (width 0.12) (type solid)) (layer "F.SilkS") (tstamp 679a07da-ed3c-4d16-9907-1606d1a81c5a))
    (fp_line (start 3.81 -0.254) (end 1.27 -0.254)
      (stroke (width 0.12) (type solid)) (layer "F.SilkS") (tstamp 1e88dd58-88a2-4f35-8697-6a6b79f6e3ab))
    (fp_line (start 3.81 0.254) (end 1.27 0.254)
      (stroke (width 0.12) (type solid)) (layer "F.SilkS") (tstamp 8248f619-e5cb-4416-b3ca-7075f9d8bdaf))
    (fp_line (start 3.81 1.397) (end 3.81 -1.27)
      (stroke (width 0.12) (type solid)) (layer "F.SilkS") (tstamp 8be3e0e7-2204-4203-9d03-4e1d66cdfa02))
    (fp_line (start 6.35 -1.27) (end 6.35 1.397)
      (stroke (width 0.12) (type solid)) (layer "F.SilkS") (tstamp ef845682-13d0-4a65-a82c-4cf5514ec87a))
    (fp_line (start 6.35 1.397) (end 3.81 1.397)
      (stroke (width 0.12) (type solid)) (layer "F.SilkS") (tstamp 5fc9286a-898c-439a-9968-3c2d9ff56636))
    (fp_line (start -1.8 -1.8) (end -1.8 1.9)
      (stroke (width 0.05) (type solid)) (layer "F.CrtYd") (tstamp ccb06707-d9e7-4f82-9a5b-f89178a19edb))
    (fp_line (start -1.8 1.9) (end 6.4 1.9)
      (stroke (width 0.05) (type solid)) (layer "F.CrtYd") (tstamp feec76c9-f20f-4a0c-a20d-7caf95f0a4db))
    (fp_line (start 6.4 -1.8) (end -1.8 -1.8)
      (stroke (width 0.05) (type solid)) (layer "F.CrtYd") (tstamp b0323f30-eeaf-4884-a7a6-bf8612fe6b1c))
    (fp_line (start 6.4 1.9) (end 6.4 -1.8)
      (stroke (width 0.05) (type solid)) (layer "F.CrtYd") (tstamp 6848755b-a449-40cb-bb69-833e3203ffab))
    (fp_line (start -0.635 -0.254) (end -0.635 0.254)
      (stroke (width 0.1) (type solid)) (layer "F.Fab") (tstamp a2feb3cc-09dc-4879-8400-bb98f28e36bf))
    (fp_line (start 3.8 -1.27) (end 6.34 -1.27)
      (stroke (width 0.1) (type solid)) (layer "F.Fab") (tstamp dc2c9de2-6ae9-4402-80ea-b4ce37d83b27))
    (fp_line (start 3.81 0) (end -0.635 0)
      (stroke (width 0.1) (type solid)) (layer "F.Fab") (tstamp 014c2485-11e4-495f-9147-cd626e7b841e))
    (fp_line (start 3.81 1.4) (end 3.8 -1.27)
      (stroke (width 0.1) (type solid)) (layer "F.Fab") (tstamp 36acda19-ebd1-4a25-ba37-62c56e545b8d))
    (fp_line (start 3.81 1.4) (end 6.36 1.4)
      (stroke (width 0.1) (type solid)) (layer "F.Fab") (tstamp ca897573-aa55-4249-9fec-ef75bcb653b1))
    (fp_line (start 6.34 -1.27) (end 6.36 1.4)
      (stroke (width 0.1) (type solid)) (layer "F.Fab") (tstamp 995da8c0-d0a6-48a3-9df3-b74ce73347b0))
    (pad "1" smd rect (at 0 0 90) (size 2.5 1.7) (layers "F.Cu" "F.Paste" "F.Mask")
      (net 5 "RESET") (pinfunction "Pin_1") (pintype "passive") (tstamp b7dd102c-2aa0-4ccd-a2cc-ab546b04dbf0))
    (model "${FAB}/fab.3dshapes/Header_SMD_01x01_P2.54mm_Horizontal_Male.step"
      (offset (xyz 0 0 0))
      (scale (xyz 1 1 1))
      (rotate (xyz 0 0 0))
    )
  )

  (segment (start 142.288 50.038) (end 142.218 49.968) (width 0.8) (layer "F.Cu") (net 1) (tstamp 234b39f4-2c31-4fd0-a8b2-4474a0fa68d4))
  (segment (start 144.018 50.038) (end 142.288 50.038) (width 0.8) (layer "F.Cu") (net 1) (tstamp 535dd926-cff8-4aee-892e-e67eb605c22f))
  (segment (start 142.218 49.968) (end 142.218 39.797) (width 0.8) (layer "F.Cu") (net 1) (tstamp 8b8740e7-67b3-4928-8666-62d2ec3312ae))
  (segment (start 142.218 39.797) (end 142.504 39.511) (width 0.8) (layer "F.Cu") (net 1) (tstamp 98bd3807-d211-40bf-a822-2d25f2e87a1b))
  (segment (start 140.218 39.765) (end 139.964 39.511) (width 0.8) (layer "F.Cu") (net 2) (tstamp 1d9213f5-6cc2-496a-a4d9-7165c2aeb9c3))
  (segment (start 138.418 50.038) (end 140.148 50.038) (width 0.8) (layer "F.Cu") (net 2) (tstamp 52518709-a573-4659-9f76-d4634575d725))
  (segment (start 140.148 50.038) (end 140.218 49.968) (width 0.8) (layer "F.Cu") (net 2) (tstamp 8430c559-1849-4caf-aae8-9291e6a34e01))
  (segment (start 140.218 49.968) (end 140.218 39.765) (width 0.8) (layer "F.Cu") (net 2) (tstamp 96caed55-57eb-4ffd-9fd6-176aab839535))
  (segment (start 148.717 46.101) (end 145.943 46.101) (width 0.8) (layer "F.Cu") (net 3) (tstamp 555ccaca-2879-4cdc-ad09-aedb7b764660))
  (segment (start 145.044 39.511) (end 145.044 45.202) (width 0.8) (layer "F.Cu") (net 3) (tstamp 71abf5d3-4101-4798-b08d-ad4b6bbc9695))
  (segment (start 145.943 46.101) (end 145.044 45.202) (width 0.8) (layer "F.Cu") (net 3) (tstamp 72b8f438-b0c3-4b00-a1ac-5cb8e73f7404))
  (segment (start 148.59 46.228) (end 148.717 46.101) (width 0.4) (layer "F.Cu") (net 3) (tstamp cfd008ae-e35a-4866-aaf6-7fed58ee4b95))
  (segment (start 144.145 46.101) (end 144.018 46.228) (width 0.4) (layer "F.Cu") (net 3) (tstamp d3599bab-1696-43dd-96e6-b96da9330c97))
  (segment (start 145.044 45.202) (end 144.018 46.228) (width 0.8) (layer "F.Cu") (net 3) (tstamp e85aa987-790d-42d6-b790-6caaf5b1326d))
  (segment (start 138.323 46.133) (end 138.418 46.228) (width 0.8) (layer "F.Cu") (net 4) (tstamp 093ba22d-8031-4bd0-91bd-4920d2ffdfce))
  (segment (start 138.418 44.057) (end 138.418 46.228) (width 0.8) (layer "F.Cu") (net 4) (tstamp 0b8130a6-ccf9-46c0-a45d-17c36b2e1722))
  (segment (start 137.424 39.511) (end 137.424 43.063) (width 0.8) (layer "F.Cu") (net 4) (tstamp 44316de7-2ef9-4a9a-b2eb-bb0aa77f1bfe))
  (segment (start 133.858 46.133) (end 138.323 46.133) (width 0.8) (layer "F.Cu") (net 4) (tstamp 49b3ca2e-26d9-4703-9d6d-95452348ccb5))
  (segment (start 137.424 43.063) (end 138.418 44.057) (width 0.8) (layer "F.Cu") (net 4) (tstamp c3be729c-e182-4d00-890d-e7b079230fd1))
  (segment (start 146.177 48.768) (end 146.812 48.133) (width 0.8) (layer "F.Cu") (net 5) (tstamp 54e96eb4-fb00-4173-8082-0bcc6b80fb37))
  (segment (start 146.812 48.133) (end 150.135 48.133) (width 0.8) (layer "F.Cu") (net 5) (tstamp 69027be6-0403-4999-b285-7db8e20ddbdd))
  (segment (start 150.622 40.132) (end 149.987 39.497) (width 0.4) (layer "F.Cu") (net 5) (tstamp 8d0db58f-03ac-488f-871b-92a0c07244ad))
  (segment (start 150.135 48.133) (end 150.367 47.901) (width 0.8) (layer "F.Cu") (net 5) (tstamp a47afa12-bca7-4d28-b535-152a784129f7))
  (segment (start 144.018 48.768) (end 146.177 48.768) (width 0.8) (layer "F.Cu") (net 5) (tstamp c0e3a142-90c0-450e-b305-cd44e8f3dc50))
  (segment (start 150.367 39.877) (end 149.987 39.497) (width 0.8) (layer "F.Cu") (net 5) (tstamp c1181f6b-3aaf-4fdb-a896-9a22b5a58ed3))
  (segment (start 150.367 47.901) (end 150.367 39.877) (width 0.8) (layer "F.Cu") (net 5) (tstamp dbdcbf72-27f2-4555-8ea3-ff027962b01f))
  (segment (start 141.01 54.443) (end 142.748 52.705) (width 0.8) (layer "F.Cu") (net 6) (tstamp 0ceb569b-2bd6-442b-84ec-53a03ff61303))
  (segment (start 142.748 52.705) (end 146.113 52.705) (width 0.8) (layer "F.Cu") (net 6) (tstamp 1844888c-87e1-4c56-b78a-89f58317e275))
  (segment (start 141.01 54.523) (end 141.01 54.443) (width 0.8) (layer "F.Cu") (net 6) (tstamp 1cef1103-c852-4555-8d66-69212c6f06b7))
  (segment (start 135.668 50.133) (end 133.858 50.133) (width 0.8) (layer "F.Cu") (net 6) (tstamp 2e786754-30fb-4bea-b7e8-da801ada2672))
  (segment (start 146.113 52.705) (end 148.717 50.101) (width 0.8) (layer "F.Cu") (net 6) (tstamp 30566d7b-9dd2-46b2-9a85-79eb07207a5f))
  (segment (start 139.065 52.578) (end 138.113 52.578) (width 0.8) (layer "F.Cu") (net 6) (tstamp 5b045407-80cb-4d8f-8bc4-03f96bde4120))
  (segment (start 141.01 63.232) (end 141.01 54.523) (width 0.8) (layer "F.Cu") (net 6) (tstamp 9759eccb-71c7-43a5-97fe-90c69b2377b5))
  (segment (start 141.01 54.523) (end 139.065 52.578) (width 0.8) (layer "F.Cu") (net 6) (tstamp 9e2d668d-a4e7-4f6d-9bac-707cb8112a28))
  (segment (start 138.113 52.578) (end 135.668 50.133) (width 0.8) (layer "F.Cu") (net 6) (tstamp e4f2e8b0-0dbc-4104-bb64-0c0545fe28ed))
  (segment (start 138.418 48.768) (end 137.033 48.768) (width 0.8) (layer "F.Cu") (net 6) (tstamp e6bf4a8d-b4ba-44a8-8c25-42178f2fd6cc))
  (segment (start 137.033 48.768) (end 135.668 50.133) (width 0.8) (layer "F.Cu") (net 6) (tstamp e8589e94-aafd-4203-81ce-7ac7f158c794))
  (segment (start 132.08 47.625) (end 132.08 39.497) (width 0.8) (layer "F.Cu") (net 7) (tstamp 3ded8f6a-40ec-468f-840c-595ae2142d07))
  (segment (start 135.636 48.133) (end 132.588 48.133) (width 0.8) (layer "F.Cu") (net 7) (tstamp 4b1bdeac-4c8d-4dc8-8a55-5c2f462ddf87))
  (segment (start 132.588 48.133) (end 132.08 47.625) (width 0.8) (layer "F.Cu") (net 7) (tstamp 9708d9f1-789e-4e03-84f6-2f296d49349b))
  (segment (start 136.271 47.498) (end 135.636 48.133) (width 0.8) (layer "F.Cu") (net 7) (tstamp afe79eb9-35c2-48e7-9f13-9d75b8bbe413))
  (segment (start 138.418 47.498) (end 136.271 47.498) (width 0.8) (layer "F.Cu") (net 7) (tstamp f433e7a1-0c87-4531-8415-9131c9977bd8))

)
