%!PS-Adobe-3.0 EPSF-3.0
%%Creator: cairo 1.17.4 (https://cairographics.org)
%%CreationDate: Sun May 14 11:15:24 2023
%%Pages: 1
%%DocumentData: Clean7Bit
%%LanguageLevel: 2
%%BoundingBox: 274 141 338 231
%%EndComments
%%BeginProlog
50 dict begin
/q { gsave } bind def
/Q { grestore } bind def
/cm { 6 array astore concat } bind def
/w { setlinewidth } bind def
/J { setlinecap } bind def
/j { setlinejoin } bind def
/M { setmiterlimit } bind def
/d { setdash } bind def
/m { moveto } bind def
/l { lineto } bind def
/c { curveto } bind def
/h { closepath } bind def
/re { exch dup neg 3 1 roll 5 3 roll moveto 0 rlineto
      0 exch rlineto 0 rlineto closepath } bind def
/S { stroke } bind def
/f { fill } bind def
/f* { eofill } bind def
/n { newpath } bind def
/W { clip } bind def
/W* { eoclip } bind def
/BT { } bind def
/ET { } bind def
/BDC { mark 3 1 roll /BDC pdfmark } bind def
/EMC { mark /EMC pdfmark } bind def
/cairo_store_point { /cairo_point_y exch def /cairo_point_x exch def } def
/Tj { show currentpoint cairo_store_point } bind def
/TJ {
  {
    dup
    type /stringtype eq
    { show } { -0.001 mul 0 cairo_font_matrix dtransform rmoveto } ifelse
  } forall
  currentpoint cairo_store_point
} bind def
/cairo_selectfont { cairo_font_matrix aload pop pop pop 0 0 6 array astore
    cairo_font exch selectfont cairo_point_x cairo_point_y moveto } bind def
/Tf { pop /cairo_font exch def /cairo_font_matrix where
      { pop cairo_selectfont } if } bind def
/Td { matrix translate cairo_font_matrix matrix concatmatrix dup
      /cairo_font_matrix exch def dup 4 get exch 5 get cairo_store_point
      /cairo_font where { pop cairo_selectfont } if } bind def
/Tm { 2 copy 8 2 roll 6 array astore /cairo_font_matrix exch def
      cairo_store_point /cairo_font where { pop cairo_selectfont } if } bind def
/g { setgray } bind def
/rg { setrgbcolor } bind def
/d1 { setcachedevice } bind def
/cairo_data_source {
  CairoDataIndex CairoData length lt
    { CairoData CairoDataIndex get /CairoDataIndex CairoDataIndex 1 add def }
    { () } ifelse
} def
/cairo_flush_ascii85_file { cairo_ascii85_file status { cairo_ascii85_file flushfile } if } def
/cairo_image { image cairo_flush_ascii85_file } def
/cairo_imagemask { imagemask cairo_flush_ascii85_file } def
%%EndProlog
%%BeginSetup
%%EndSetup
%%Page: 1 1
%%BeginPageSetup
%%PageBoundingBox: 274 141 338 231
%%EndPageSetup
q 274 141 64 90 rectclip
1 0 0 -1 0 842 cm q
0 1 0.74902 rg
0.75 w
1 J
0 j
[] 0.0 d
4 M q 1 0 0 1 0 0 cm
326.492 648.516 m 321.309 653.695 l 321.234 653.75 l 321.172 653.812 l 
321.094 653.852 l 321.02 653.906 l 320.938 653.934 l 320.855 653.973 l 320.77
 653.988 l 320.684 654.016 l 320.594 654.016 l 320.504 654.027 l 311.672
 654.027 l 311.523 654.027 311.379 654.09 311.27 654.195 c 307.34 658.125
 l 307.234 658.23 307.176 658.375 307.176 658.527 c 307.176 665.23 l 307.176
 665.543 307.426 665.797 307.742 665.797 c 334.176 665.797 l 335.738 665.797
 337.008 667.066 337.008 668.633 c 337.008 696.836 l 337.008 698.402 335.738
 699.672 334.176 699.672 c 277.906 699.672 l 276.34 699.672 275.07 698.402
 275.07 696.836 c 275.07 668.633 l 275.07 667.066 276.34 665.797 277.906
 665.797 c 304.34 665.797 l 304.652 665.797 304.906 665.543 304.906 665.23
 c 304.906 658.754 l 304.906 658.602 304.848 658.457 304.738 658.352 c 300.223
 653.836 l 300.117 653.727 299.973 653.668 299.82 653.668 c 297.828 653.668
 l 297.738 653.656 l 297.648 653.656 l 297.562 653.625 l 297.477 653.613
 l 297.398 653.574 l 297.312 653.543 l 297.242 653.492 l 297.16 653.453 
l 297.098 653.387 l 297.027 653.336 l 290.594 646.902 l 290.488 646.797 
290.344 646.738 290.191 646.738 c 288.742 646.738 l 288.43 646.738 288.176
 646.992 288.176 647.305 c 288.176 647.871 l 288.176 648.184 287.922 648.438
 287.609 648.438 c 283.926 648.438 l 283.609 648.438 283.355 648.184 283.355
 647.871 c 283.355 643.336 l 283.355 643.023 283.609 642.77 283.926 642.77
 c 287.609 642.77 l 287.922 642.77 288.176 643.023 288.176 643.336 c 288.176
 644.469 l 290.191 644.469 l 290.344 644.469 290.488 644.41 290.594 644.305
 c 293.965 640.934 l 294.039 640.879 l 294.102 640.816 l 294.18 640.777 
l 294.25 640.723 l 294.336 640.695 l 294.414 640.656 l 294.504 640.641 l
 294.59 640.613 l 294.68 640.613 l 294.766 640.602 l 300.961 640.602 l 301.273
 640.602 301.527 640.855 301.527 641.168 c 301.527 642.301 l 301.527 642.613
 301.273 642.867 300.961 642.867 c 295.238 642.867 l 292.902 645.203 l 292.68
 645.426 292.68 645.785 292.902 646.004 c 298.133 651.234 l 298.238 651.34
 298.383 651.402 298.535 651.402 c 300.527 651.402 l 300.613 651.414 l 300.707
 651.414 l 300.789 651.441 l 300.879 651.457 l 300.957 651.496 l 301.043
 651.523 l 301.113 651.578 l 301.191 651.617 l 301.254 651.68 l 301.328 
651.734 l 305.527 655.93 l 305.746 656.152 306.105 656.152 306.328 655.93
 c 310.164 652.094 l 310.238 652.039 l 310.301 651.977 l 310.379 651.938
 l 310.449 651.883 l 310.535 651.855 l 310.613 651.816 l 310.703 651.801
 l 310.789 651.773 l 310.879 651.773 l 310.965 651.762 l 319.801 651.762
 l 319.949 651.762 320.094 651.703 320.199 651.594 c 325.312 646.484 l 325.418
 646.379 325.477 646.234 325.477 646.086 c 325.477 643.246 l 325.477 642.934
 325.73 642.68 326.043 642.68 c 329.73 642.68 l 330.043 642.68 330.297 642.934
 330.297 643.246 c 330.297 647.781 l 330.297 648.094 330.043 648.348 329.73
 648.348 c 326.891 648.348 l 326.742 648.348 326.598 648.406 326.492 648.516
 c h
326.492 648.516 m S Q
q 1 0 0 1 0 0 cm
317.402 644.77 m 317.402 645.902 l 317.402 646.215 317.148 646.469 316.836
 646.469 c 309.664 646.469 l 308.926 646.469 308.332 645.871 308.332 645.137
 c 308.332 619.18 l 308.332 619.102 308.266 619.039 308.188 619.039 c 308.008
 619.039 l 307.93 619.039 307.867 618.973 307.867 618.895 c 307.867 612.52
 l 307.867 612.203 308.121 611.949 308.434 611.949 c 312.117 611.949 l 312.43
 611.949 312.684 612.203 312.684 612.52 c 312.684 618.469 l 312.684 618.785
 312.43 619.039 312.117 619.039 c 311.164 619.039 l 310.852 619.039 310.598
 619.293 310.598 619.605 c 310.598 643.633 l 310.598 643.945 310.852 644.199
 311.164 644.199 c 316.836 644.199 l 317.148 644.199 317.402 644.453 317.402
 644.77 c h
317.402 644.77 m S Q
q 1 0 0 1 0 0 cm
301.414 646.469 m 296.426 646.469 l 296.113 646.469 295.859 646.215 295.859
 645.902 c 295.859 644.77 l 295.859 644.453 296.113 644.199 296.426 644.199
 c 302.094 644.199 l 302.406 644.199 302.66 643.945 302.66 643.633 c 302.66
 619.605 l 302.66 619.293 302.406 619.039 302.094 619.039 c 301.234 619.039
 l 300.918 619.039 300.664 618.785 300.664 618.469 c 300.664 612.52 l 300.664
 612.203 300.918 611.949 301.234 611.949 c 304.918 611.949 l 305.23 611.949
 305.484 612.203 305.484 612.52 c 305.484 618.738 l 305.484 618.855 305.391
 618.953 305.273 618.953 c 305.07 618.953 l 304.945 618.953 304.844 619.055
 304.844 619.18 c 304.848 645.258 l 304.848 645.93 304.301 646.477 303.629
 646.473 c h
301.414 646.469 m S Q
q 1 0 0 1 0 0 cm
321.414 642.59 m 321.352 642.648 l S Q
q 1 0 0 1 0 0 cm
321.273 642.695 m 321.203 642.746 l S Q
q 1 0 0 1 0 0 cm
333.695 618.973 m 333.703 639.254 l S Q
q 1 0 0 1 0 0 cm
282.199 618.996 m 282.145 618.996 l 281.988 618.996 281.859 619.125 281.859
 619.281 c 281.859 637.789 l 281.859 637.941 281.922 638.086 282.027 638.191
 c 282.473 638.637 l 282.578 638.742 282.723 638.801 282.871 638.801 c 290.102
 638.801 l 290.25 638.801 290.395 638.742 290.504 638.633 c 291.805 637.332
 l 291.879 637.281 l 291.941 637.219 l 292.02 637.176 l 292.09 637.125 l
 292.176 637.098 l 292.254 637.055 l 292.344 637.043 l 292.43 637.016 l 
292.52 637.016 l 292.605 637 l 300.961 637 l 301.273 637 301.527 637.254
 301.527 637.566 c 301.527 638.703 l 301.527 639.016 301.273 639.27 300.961
 639.27 c 293.312 639.27 l 293.16 639.27 293.016 639.328 292.91 639.434 
c 291.609 640.734 l 291.535 640.789 l 291.473 640.852 l 291.395 640.891 
l 291.324 640.945 l 291.238 640.973 l 291.156 641.012 l 291.07 641.027 l
 290.984 641.055 l 290.895 641.055 l 290.805 641.07 l 282.168 641.07 l 282.078
 641.055 l 281.988 641.055 l 281.902 641.027 l 281.816 641.012 l 281.734
 640.973 l 281.652 640.945 l 281.578 640.891 l 281.5 640.852 l 281.438 640.789
 l 281.363 640.734 l 279.926 639.297 l 279.875 639.223 l 279.809 639.16 
l 279.77 639.082 l 279.719 639.008 l 279.688 638.926 l 279.648 638.844 l
 279.637 638.758 l 279.605 638.672 l 279.605 638.582 l 279.594 638.496 l
 279.594 619.422 l 279.594 619.188 279.402 618.996 279.168 618.996 c 278.742
 618.996 l 278.508 618.996 278.316 618.809 278.316 618.574 c 278.316 612.477
 l 278.316 612.164 278.57 611.91 278.883 611.91 c 282.059 611.91 l 282.371
 611.91 282.625 612.164 282.625 612.477 c 282.625 618.574 l 282.625 618.809
 282.434 618.996 282.199 618.996 c h
282.199 618.996 m S Q
q 1 0 0 1 0 0 cm
322.137 638.855 m 322.223 638.84 l S Q
q 1 0 0 1 0 0 cm
321.203 642.746 m 321.117 642.77 l S Q
q 1 0 0 1 0 0 cm
331.906 641.066 m 323.191 641.066 l S Q
q 1 0 0 1 0 0 cm
320.383 640.438 m 321.684 639.133 l S Q
q 1 0 0 1 0 0 cm
321.488 642.539 m 321.414 642.59 l S Q
q 1 0 0 1 0 0 cm
322.793 641.23 m 321.488 642.539 l S Q
q 1 0 0 1 0 0 cm
321.117 642.77 m 321.039 642.816 l S Q
q 1 0 0 1 0 0 cm
312.297 640.602 m 317.402 640.602 l S Q
q 1 0 0 1 0 0 cm
321.352 642.648 m 321.273 642.695 l S Q
q 1 0 0 1 0 0 cm
322.223 638.84 m 322.309 638.816 l S Q
q 1 0 0 1 0 0 cm
333.695 612.477 m 333.695 618.973 l S Q
q 1 0 0 1 0 0 cm
317.402 642.867 m 314.566 642.867 l S Q
q 1 0 0 1 0 0 cm
314.566 642.867 m 312.297 642.867 l S Q
q 1 0 0 1 0 0 cm
321.898 638.977 m 321.969 638.922 l S Q
q 1 0 0 1 0 0 cm
329.078 618.434 m 329.078 612.477 l S Q
q 1 0 0 1 0 0 cm
317.402 640.602 m 319.98 640.602 l S Q
q 1 0 0 1 0 0 cm
320.773 642.852 m 320.688 642.867 l S Q
q 1 0 0 1 0 0 cm
321.969 638.922 m 322.055 638.898 l S Q
q 1 0 0 1 0 0 cm
311.73 642.305 m 311.73 641.164 l S Q
q 1 0 0 1 0 0 cm
321.758 639.078 m 321.82 639.02 l S Q
q 1 0 0 1 0 0 cm
322.309 638.816 m 322.398 638.816 l S Q
q 1 0 0 1 0 0 cm
320.863 642.852 m 320.773 642.852 l S Q
q 1 0 0 1 0 0 cm
322.488 638.801 m 330.863 638.801 l S Q
q 1 0 0 1 0 0 cm
330.863 618.996 m 329.645 618.996 l S Q
q 1 0 0 1 0 0 cm
329.645 611.914 m 333.129 611.914 l S Q
q 1 0 0 1 0 0 cm
322.398 638.816 m 322.488 638.801 l S Q
q 1 0 0 1 0 0 cm
320.688 642.867 m 317.402 642.867 l S Q
q 1 0 0 1 0 0 cm
331.43 638.23 m 331.43 619.566 l S Q
q 1 0 0 1 0 0 cm
321.039 642.816 m 320.949 642.828 l S Q
q 1 0 0 1 0 0 cm
322.055 638.898 m 322.137 638.855 l S Q
q 1 0 0 1 0 0 cm
321.684 639.133 m 321.758 639.078 l S Q
q 1 0 0 1 0 0 cm
320.949 642.828 m 320.863 642.852 l S Q
q 1 0 0 1 0 0 cm
321.82 639.02 m 321.898 638.977 l S Q
q 1 0 0 1 0 0 cm
316.836 639.27 m 312.301 639.27 l 311.984 639.27 311.73 639.016 311.73 
638.703 c 311.73 637.566 l 311.73 637.254 311.984 637 312.301 637 c 316.836
 637 l 317.148 637 317.402 637.254 317.402 637.566 c 317.402 638.703 l 317.402
 639.016 317.148 639.27 316.836 639.27 c h
316.836 639.27 m S Q
q 1 0 0 1 0 0 cm
295.859 635.398 m 288.742 635.398 l 288.43 635.398 288.176 635.652 288.176
 635.965 c 288.176 636.531 l 288.176 636.848 287.922 637.102 287.609 637.102
 c 283.926 637.102 l 283.609 637.102 283.355 636.848 283.355 636.531 c 283.355
 631.996 l 283.355 631.684 283.609 631.43 283.926 631.43 c 287.609 631.43
 l 287.922 631.43 288.176 631.684 288.176 631.996 c 288.176 632.566 l 288.176
 632.879 288.43 633.133 288.742 633.133 c 296.992 633.133 l 297.305 633.133
 297.559 632.879 297.559 632.566 c 297.559 629.086 l 297.559 628.934 297.5
 628.789 297.395 628.684 c 295.074 626.363 l 295.023 626.293 l 294.957 626.23
 l 294.918 626.148 l 294.867 626.078 l 294.836 625.992 l 294.797 625.914
 l 294.785 625.824 l 294.754 625.742 l 294.754 625.652 l 294.742 625.562
 l 294.742 619.605 l 294.742 619.293 294.488 619.039 294.176 619.039 c 294.031
 619.039 l 293.719 619.039 293.465 618.785 293.465 618.469 c 293.465 612.52
 l 293.465 612.203 293.719 611.949 294.031 611.949 c 297.719 611.949 l 298.031
 611.949 298.285 612.203 298.285 612.52 c 298.285 618.469 l 298.285 618.785
 298.031 619.039 297.719 619.039 c 297.574 619.039 l 297.262 619.039 297.008
 619.293 297.008 619.605 c 297.008 624.859 l 297.008 625.008 297.07 625.152
 297.176 625.258 c 299.496 627.578 l 299.547 627.652 l 299.609 627.715 l
 299.652 627.793 l 299.703 627.867 l 299.73 627.949 l 299.77 628.031 l 299.785
 628.117 l 299.812 628.203 l 299.812 628.293 l 299.828 628.379 l 299.828
 632.832 l 299.828 633.148 300.082 633.402 300.395 633.402 c 300.961 633.402
 l 301.273 633.402 301.527 633.656 301.527 633.969 c 301.527 635.102 l 301.527
 635.414 301.273 635.668 300.961 635.668 c 295.859 635.668 l h
295.859 635.398 m S Q
q 1 0 0 1 0 0 cm
316.34 630.922 m 316.34 619.605 l 316.34 619.293 316.086 619.039 315.773
 619.039 c 315.633 619.039 l 315.32 619.039 315.066 618.785 315.066 618.469
 c 315.066 612.52 l 315.066 612.203 315.32 611.949 315.633 611.949 c 319.316
 611.949 l 319.629 611.949 319.883 612.203 319.883 612.52 c 319.883 618.469
 l 319.883 618.785 319.629 619.039 319.316 619.039 c 319.176 619.039 l 318.863
 619.039 318.609 619.293 318.609 619.605 c 318.609 630.922 l 318.609 631.07
 318.668 631.215 318.773 631.324 c 320.328 632.875 l 320.434 632.98 320.578
 633.039 320.73 633.039 c 324.91 633.039 l 325.223 633.039 325.477 632.785
 325.477 632.473 c 325.477 631.906 l 325.477 631.594 325.73 631.34 326.043
 631.34 c 329.73 631.34 l 330.043 631.34 330.297 631.594 330.297 631.906
 c 330.297 636.441 l 330.297 636.754 330.043 637.008 329.73 637.008 c 326.043
 637.008 l 325.73 637.008 325.477 636.754 325.477 636.441 c 325.477 635.875
 l 325.477 635.562 325.223 635.309 324.91 635.309 c 320.07 635.309 l 320.039
 635.309 320.008 635.309 319.977 635.312 c 316.883 635.664 l 316.852 635.668
 316.816 635.668 316.785 635.668 c 312.301 635.668 l 311.984 635.668 311.73
 635.414 311.73 635.102 c 311.73 633.969 l 311.73 633.656 311.984 633.402
 312.301 633.402 c 313.859 633.402 l 314.012 633.402 314.156 633.34 314.262
 633.234 c 316.176 631.324 l 316.281 631.215 316.34 631.07 316.34 630.922
 c h
316.34 630.922 m S Q
q 1 0 0 1 0 0 cm
330.863 638.801 m 331.176 638.801 331.43 638.547 331.43 638.234 c S Q
q 1 0 0 1 0 0 cm
323.191 641.07 m 323.043 641.07 322.898 641.129 322.793 641.234 c S Q
q 1 0 0 1 0 0 cm
319.98 640.602 m 320.133 640.602 320.277 640.543 320.383 640.434 c S Q
q 1 0 0 1 0 0 cm
331.43 619.566 m 331.43 619.25 331.176 618.996 330.863 618.996 c S Q
q 1 0 0 1 0 0 cm
329.078 618.43 m 329.078 618.742 329.332 618.996 329.645 618.996 c S Q
q 1 0 0 1 0 0 cm
329.645 611.91 m 329.332 611.91 329.078 612.164 329.078 612.477 c S Q
q 1 0 0 1 0 0 cm
333.695 612.477 m 333.695 612.164 333.441 611.91 333.129 611.91 c S Q
q 1 0 0 1 0 0 cm
311.73 642.301 m 311.73 642.613 311.984 642.867 312.301 642.867 c S Q
q 1 0 0 1 0 0 cm
312.301 640.602 m 311.984 640.602 311.73 640.855 311.73 641.168 c S Q
q 1 0 0 1 0 0 cm
331.906 641.07 m 332.902 641.059 333.703 640.246 333.703 639.25 c S Q
Q Q
showpage
%%Trailer
end
%%EOF
