%!PS-Adobe-3.0 EPSF-3.0
%%Creator: cairo 1.17.4 (https://cairographics.org)
%%CreationDate: Sun May 14 12:51:54 2023
%%Pages: 1
%%DocumentData: Clean7Bit
%%LanguageLevel: 2
%%BoundingBox: 165 130 379 203
%%EndComments
%%BeginProlog
50 dict begin
/q { gsave } bind def
/Q { grestore } bind def
/cm { 6 array astore concat } bind def
/w { setlinewidth } bind def
/J { setlinecap } bind def
/j { setlinejoin } bind def
/M { setmiterlimit } bind def
/d { setdash } bind def
/m { moveto } bind def
/l { lineto } bind def
/c { curveto } bind def
/h { closepath } bind def
/re { exch dup neg 3 1 roll 5 3 roll moveto 0 rlineto
      0 exch rlineto 0 rlineto closepath } bind def
/S { stroke } bind def
/f { fill } bind def
/f* { eofill } bind def
/n { newpath } bind def
/W { clip } bind def
/W* { eoclip } bind def
/BT { } bind def
/ET { } bind def
/BDC { mark 3 1 roll /BDC pdfmark } bind def
/EMC { mark /EMC pdfmark } bind def
/cairo_store_point { /cairo_point_y exch def /cairo_point_x exch def } def
/Tj { show currentpoint cairo_store_point } bind def
/TJ {
  {
    dup
    type /stringtype eq
    { show } { -0.001 mul 0 cairo_font_matrix dtransform rmoveto } ifelse
  } forall
  currentpoint cairo_store_point
} bind def
/cairo_selectfont { cairo_font_matrix aload pop pop pop 0 0 6 array astore
    cairo_font exch selectfont cairo_point_x cairo_point_y moveto } bind def
/Tf { pop /cairo_font exch def /cairo_font_matrix where
      { pop cairo_selectfont } if } bind def
/Td { matrix translate cairo_font_matrix matrix concatmatrix dup
      /cairo_font_matrix exch def dup 4 get exch 5 get cairo_store_point
      /cairo_font where { pop cairo_selectfont } if } bind def
/Tm { 2 copy 8 2 roll 6 array astore /cairo_font_matrix exch def
      cairo_store_point /cairo_font where { pop cairo_selectfont } if } bind def
/g { setgray } bind def
/rg { setrgbcolor } bind def
/d1 { setcachedevice } bind def
/cairo_data_source {
  CairoDataIndex CairoData length lt
    { CairoData CairoDataIndex get /CairoDataIndex CairoDataIndex 1 add def }
    { () } ifelse
} def
/cairo_flush_ascii85_file { cairo_ascii85_file status { cairo_ascii85_file flushfile } if } def
/cairo_image { image cairo_flush_ascii85_file } def
/cairo_imagemask { imagemask cairo_flush_ascii85_file } def
%%EndProlog
%%BeginSetup
%%EndSetup
%%Page: 1 1
%%BeginPageSetup
%%PageBoundingBox: 165 130 379 203
%%EndPageSetup
q 165 130 214 73 rectclip
1 0 0 -1 0 842 cm q
0 g
0.75 w
0 J
0 j
[] 0.0 d
4 M q 1 0 0 1 0 0 cm
338.43 680.336 m 310.844 680.336 l 310.715 680.336 310.59 680.367 310.477
 680.422 c 302.887 684.027 l 302.773 684.078 302.648 684.109 302.52 684.109
 c 256.227 684.109 l 254.723 684.109 253.281 684.707 252.215 685.77 c 251.152
 686.832 250.555 688.273 250.555 689.777 c 250.555 705.367 l 250.555 706.871
 249.957 708.312 248.895 709.375 c 247.832 710.441 246.391 711.035 244.887
 711.035 c 171.188 711.035 l 169.684 711.035 168.238 710.441 167.176 709.375
 c 166.113 708.312 165.516 706.871 165.516 705.367 c 165.516 645.84 l 165.516
 644.336 166.113 642.895 167.176 641.832 c 168.238 640.77 169.684 640.172
 171.188 640.172 c 244.887 640.172 l 246.391 640.172 247.832 640.77 248.895
 641.832 c 249.957 642.895 250.555 644.336 250.555 645.84 c 250.555 672.77
 l 250.555 674.273 251.152 675.715 252.215 676.777 c 253.281 677.84 254.723
 678.438 256.227 678.438 c 309.125 678.438 l 309.195 678.438 309.27 678.43
 309.34 678.41 c 310.543 678.098 l 310.613 678.078 310.688 678.07 310.758
 678.07 c 338.43 678.07 l 338.742 678.07 338.996 678.324 338.996 678.637
 c 338.996 679.77 l 338.996 680.082 338.742 680.336 338.43 680.336 c h
338.43 680.336 m S Q
q 1 0 0 1 0 0 cm
354.871 682.234 m 354.871 683.375 l S Q
q 1 0 0 1 0 0 cm
352.035 681.672 m 354.305 681.672 l S Q
q 1 0 0 1 0 0 cm
354.871 680.336 m 349.77 680.336 l 349.457 680.336 349.203 680.082 349.203
 679.77 c 349.203 677.504 l 349.203 677.035 349.582 676.652 350.051 676.652
 c 376.699 676.652 l 377.168 676.652 377.547 677.035 377.547 677.504 c 377.547
 679.488 l 377.547 679.957 377.168 680.336 376.699 680.336 c h
354.871 680.336 m S Q
q 1 0 0 1 0 0 cm
338.43 676.738 m 314.051 676.738 l 313.738 676.738 313.484 676.484 313.484
 676.172 c 313.484 675.035 l 313.484 674.723 313.738 674.469 314.051 674.469
 c 338.43 674.469 l 338.742 674.469 338.996 674.723 338.996 675.035 c 338.996
 676.172 l 338.996 676.484 338.742 676.738 338.43 676.738 c h
338.43 676.738 m S Q
q 1 0 0 1 0 0 cm
336.16 673.137 m 310.758 673.137 l 310.688 673.137 310.613 673.129 310.543
 673.109 c 309.34 672.797 l 309.27 672.777 309.195 672.77 309.125 672.77
 c 298.746 672.77 l 298.273 672.77 297.895 672.387 297.895 671.918 c 297.895
 667.949 l 297.895 667.48 298.273 667.102 298.746 667.102 c 338.145 667.102
 l 338.617 667.102 338.996 667.48 338.996 667.949 c 338.996 672.57 l 338.996
 672.883 338.742 673.137 338.43 673.137 c h
336.16 673.137 m S Q
q 1 0 0 1 0 0 cm
349.203 672.57 m 349.203 662.281 l 349.203 661.812 348.82 661.43 348.352
 661.43 c 284.57 661.43 l 284.102 661.43 283.723 661.812 283.723 662.281
 c 283.723 671.918 l 283.723 672.387 283.34 672.77 282.871 672.77 c 279.754
 672.77 l 279.281 672.77 278.902 672.387 278.902 671.918 c 278.902 656.613
 l 278.902 656.141 279.281 655.762 279.754 655.762 c 354.02 655.762 l 354.488
 655.762 354.871 656.141 354.871 656.613 c 354.871 672.289 l 354.871 672.758
 354.488 673.137 354.02 673.137 c 354.254 673.137 l 349.77 673.137 l 349.457
 673.137 349.203 672.883 349.203 672.57 c h
349.203 672.57 m S Q
q 1 0 0 1 0 0 cm
354.871 682.238 m 354.871 681.926 354.617 681.672 354.305 681.672 c S Q
q 1 0 0 1 0 0 cm
333.895 681.672 m 314.336 681.672 l 313.867 681.672 313.484 682.051 313.484
 682.52 c 313.484 686.488 l 313.484 686.957 313.867 687.34 314.336 687.34
 c 338.145 687.34 l 338.617 687.34 338.996 686.957 338.996 686.488 c 338.996
 682.52 l 338.996 682.051 338.617 681.672 338.145 681.672 c h
333.895 681.672 m S Q
q 1 0 0 1 0 0 cm
313.484 697.828 m 313.484 693.859 l S Q
q 1 0 0 1 0 0 cm
314.336 693.012 m 348.352 693.012 l S Q
q 1 0 0 1 0 0 cm
349.199 692.156 m 349.199 682.52 l S Q
q 1 0 0 1 0 0 cm
314.336 698.684 m 354.02 698.684 l S Q
q 1 0 0 1 0 0 cm
354.871 697.828 m 354.871 683.375 l S Q
q 1 0 0 1 0 0 cm
352.035 681.672 m 350.051 681.672 l S Q
q 1 0 0 1 0 0 cm
313.484 697.828 m 313.484 698.297 313.867 698.68 314.336 698.68 c S Q
q 1 0 0 1 0 0 cm
314.336 693.008 m 313.867 693.008 313.484 693.391 313.484 693.859 c S Q
q 1 0 0 1 0 0 cm
348.352 693.008 m 348.82 693.008 349.203 692.629 349.203 692.16 c S Q
q 1 0 0 1 0 0 cm
350.051 681.672 m 349.582 681.672 349.203 682.051 349.203 682.52 c S Q
q 1 0 0 1 0 0 cm
354.02 698.68 m 354.488 698.68 354.871 698.297 354.871 697.828 c S Q
Q Q
showpage
%%Trailer
end
%%EOF
