%TF.GenerationSoftware,KiCad,Pcbnew,(7.0.0)*%
%TF.CreationDate,2023-03-07T17:19:20+01:00*%
%TF.ProjectId,final-project-board,66696e61-6c2d-4707-926f-6a6563742d62,rev?*%
%TF.SameCoordinates,Original*%
%TF.FileFunction,Copper,L2,Bot*%
%TF.FilePolarity,Positive*%
%FSLAX46Y46*%
G04 Gerber Fmt 4.6, Leading zero omitted, Abs format (unit mm)*
G04 Created by KiCad (PCBNEW (7.0.0)) date 2023-03-07 17:19:20*
%MOMM*%
%LPD*%
G01*
G04 APERTURE LIST*
%TA.AperFunction,ComponentPad*%
%ADD10R,2.000000X1.905000*%
%TD*%
%TA.AperFunction,ComponentPad*%
%ADD11O,2.300000X1.905000*%
%TD*%
%TA.AperFunction,ComponentPad*%
%ADD12O,2.300000X1.700000*%
%TD*%
G04 APERTURE END LIST*
D10*
%TO.P,IRF520,1,G*%
%TO.N,d6*%
X141165999Y-103520749D03*
D11*
%TO.P,IRF520,2,D*%
%TO.N,V-*%
X141165999Y-106060749D03*
%TO.P,IRF520,3,S*%
%TO.N,GND*%
X141165999Y-108600749D03*
%TD*%
D12*
%TO.P,JSPI2,1,Pin_1*%
%TO.N,mosi*%
X173225999Y-98948749D03*
%TO.P,JSPI2,2,Pin_2*%
%TO.N,miso*%
X173225999Y-101488749D03*
%TO.P,JSPI2,3,Pin_3*%
%TO.N,sck*%
X173225999Y-104028749D03*
%TO.P,JSPI2,4,Pin_4*%
%TO.N,cs*%
X173225999Y-106568749D03*
%TO.P,JSPI2,5,Pin_5*%
%TO.N,+3.3V*%
X173225999Y-109108749D03*
%TO.P,JSPI2,6,Pin_6*%
%TO.N,GND*%
X173225999Y-111648749D03*
%TD*%
%TO.P,JSPI1,1,Pin_1*%
%TO.N,mosi*%
X165605999Y-98948749D03*
%TO.P,JSPI1,2,Pin_2*%
%TO.N,miso*%
X165605999Y-101488749D03*
%TO.P,JSPI1,3,Pin_3*%
%TO.N,sck*%
X165605999Y-104028749D03*
%TO.P,JSPI1,4,Pin_4*%
%TO.N,cs*%
X165605999Y-106568749D03*
%TO.P,JSPI1,5,Pin_5*%
%TO.N,+3.3V*%
X165605999Y-109108749D03*
%TO.P,JSPI1,6,Pin_6*%
%TO.N,GND*%
X165605999Y-111648749D03*
%TD*%
%TO.P,JRelay1,1,Pin_1*%
%TO.N,+5V*%
X181861999Y-77739749D03*
%TO.P,JRelay1,2,Pin_2*%
%TO.N,d0*%
X181861999Y-80279749D03*
%TO.P,JRelay1,3,Pin_3*%
%TO.N,GND*%
X181861999Y-82819749D03*
%TD*%
%TO.P,JI2C3,1,Pin_1*%
%TO.N,SDA*%
X126362999Y-101361749D03*
%TO.P,JI2C3,2,Pin_2*%
%TO.N,SCL*%
X126362999Y-103901749D03*
%TO.P,JI2C3,3,Pin_3*%
%TO.N,+3.3V*%
X126362999Y-106441749D03*
%TO.P,JI2C3,4,Pin_4*%
%TO.N,GND*%
X126362999Y-108981749D03*
%TD*%
%TO.P,JI2C2,1,Pin_1*%
%TO.N,SDA*%
X121282999Y-101361749D03*
%TO.P,JI2C2,2,Pin_2*%
%TO.N,SCL*%
X121282999Y-103901749D03*
%TO.P,JI2C2,3,Pin_3*%
%TO.N,+3.3V*%
X121282999Y-106441749D03*
%TO.P,JI2C2,4,Pin_4*%
%TO.N,GND*%
X121282999Y-108981749D03*
%TD*%
%TO.P,JI2C1,1,Pin_1*%
%TO.N,SDA*%
X116202999Y-101361749D03*
%TO.P,JI2C1,2,Pin_2*%
%TO.N,SCL*%
X116202999Y-103901749D03*
%TO.P,JI2C1,3,Pin_3*%
%TO.N,+3.3V*%
X116202999Y-106441749D03*
%TO.P,JI2C1,4,Pin_4*%
%TO.N,GND*%
X116202999Y-108981749D03*
%TD*%
M02*
