%TF.GenerationSoftware,KiCad,Pcbnew,(7.0.0)*%
%TF.CreationDate,2023-03-07T17:19:20+01:00*%
%TF.ProjectId,final-project-board,66696e61-6c2d-4707-926f-6a6563742d62,rev?*%
%TF.SameCoordinates,Original*%
%TF.FileFunction,Paste,Top*%
%TF.FilePolarity,Positive*%
%FSLAX46Y46*%
G04 Gerber Fmt 4.6, Leading zero omitted, Abs format (unit mm)*
G04 Created by KiCad (PCBNEW (7.0.0)) date 2023-03-07 17:19:20*
%MOMM*%
%LPD*%
G01*
G04 APERTURE LIST*
G04 Aperture macros list*
%AMRoundRect*
0 Rectangle with rounded corners*
0 $1 Rounding radius*
0 $2 $3 $4 $5 $6 $7 $8 $9 X,Y pos of 4 corners*
0 Add a 4 corners polygon primitive as box body*
4,1,4,$2,$3,$4,$5,$6,$7,$8,$9,$2,$3,0*
0 Add four circle primitives for the rounded corners*
1,1,$1+$1,$2,$3*
1,1,$1+$1,$4,$5*
1,1,$1+$1,$6,$7*
1,1,$1+$1,$8,$9*
0 Add four rect primitives between the rounded corners*
20,1,$1+$1,$2,$3,$4,$5,0*
20,1,$1+$1,$4,$5,$6,$7,0*
20,1,$1+$1,$6,$7,$8,$9,0*
20,1,$1+$1,$8,$9,$2,$3,0*%
G04 Aperture macros list end*
%ADD10RoundRect,1.000000X-0.375000X0.000000X0.375000X0.000000X0.375000X0.000000X-0.375000X0.000000X0*%
%ADD11R,2.000000X1.500000*%
%ADD12R,1.700000X2.000000*%
%ADD13R,2.000000X1.700000*%
%ADD14R,2.500000X1.700000*%
G04 APERTURE END LIST*
D10*
%TO.C,U1*%
X135473000Y-95123000D03*
X135473000Y-92583000D03*
X135473000Y-90043000D03*
X135473000Y-87503000D03*
X135473000Y-84963000D03*
X135473000Y-82423000D03*
X135473000Y-79883000D03*
X151638000Y-95123000D03*
X151638000Y-92583000D03*
X151638000Y-90043000D03*
X151638000Y-87503000D03*
X151638000Y-84963000D03*
X151638000Y-82423000D03*
X151638000Y-79883000D03*
%TD*%
D11*
%TO.C,SW2*%
X161124999Y-79811749D03*
X175424999Y-79811749D03*
X161124999Y-84811749D03*
X175424999Y-84811749D03*
%TD*%
%TO.C,SW1*%
X111808999Y-80914749D03*
X126108999Y-80914749D03*
X111808999Y-85914749D03*
X126108999Y-85914749D03*
%TD*%
D12*
%TO.C,RpdIRF*%
X134942999Y-109203749D03*
X134942999Y-105203749D03*
%TD*%
%TO.C,Rpd2*%
X157098999Y-83279999D03*
X157098999Y-79279999D03*
%TD*%
%TO.C,Rpd1*%
X130045999Y-88407749D03*
X130045999Y-84407749D03*
%TD*%
D13*
%TO.C,R2*%
X127219999Y-94503749D03*
X123219999Y-94503749D03*
%TD*%
%TO.C,R1*%
X164557999Y-91328749D03*
X168557999Y-91328749D03*
%TD*%
D14*
%TO.C,JLights1*%
X153173999Y-109606749D03*
X153173999Y-107066749D03*
X153173999Y-104526749D03*
X153173999Y-101986749D03*
%TD*%
D13*
%TO.C,Dpwr1*%
X172717999Y-91328749D03*
X176717999Y-91328749D03*
%TD*%
%TO.C,D2*%
X119599999Y-94503749D03*
X115599999Y-94503749D03*
%TD*%
M02*
